COMPARABILITY Visualizations
…
    ))

datasets %>% 
  count(dataset)

# A tibble: 82 × 2
   dataset                               n
   <chr>                             <int>
 1 ADORE                                 1
 2 AMBIT Database Database               2
 3 Aquire                                1
 4 Aranda et al. (2017)                  1
 5 Austin et al. (2015)                  1
 6 Benfenati (2011)                      1
 7 Canadian Domestic Substances list     1
 8 Cassani et al. (2013)                 1
 9 Cassotti et al. (2015)                1
10 ChemIDplus database                   1
# ℹ 72 more rows
…
